32 Bootstrapping clustered data – Resources for S043/Stat151: Multilevel and Longitudinal Models
…
There were 0 messages, 0 warnings, and 0 errors.

We can get confidence intervals as well:

lmeresampler:::confint.lmeresamp( bres )

# A tibble: 24 × 6
   term                 estimate  lower   upper type  level
   <chr>                   <dbl>  <dbl>   <dbl> <chr> <dbl>
 1 (Intercept)            11.8   11.4   12.2    norm   0.95
 2 ses                     2.96   2.76   3.23   norm   0.95
 3 sector                  2.13   1.55   2.63   norm   0.95
 4 ses:sector             -1.31  -1.68  -0.894  norm   0.95
 5 sd__(Intercept)         1.95   1.58   2.06   norm   0.95
 6 cor__(Intercept).ses    1.00   1.34   1.87   norm   0.95
 7 sd__ses                 0.275 -0.545 -0.0369 norm   0.95
 8 sd__Observation         6.07   6.00   6.22   norm   0.95
 9 (Intercept)            11.8   11.4   12.2    basic  0.95
10 ses                     2.96   2.76   3.21   basic  0.95
# ℹ 14 more rows
…
