7 Doing things over and over again – Handouts for S022 (Data Science in Education)
…
Note. The as.numeric line is because the table command makes table objects which are really just lists of numbers, but it seems cleaner to tell R to knock it off and just let it be a number. Not doing this still works fine, it just gives a warning in ggplot()

12 Advanced stuff

In the following we look at a few cool functions that help with mapping.

12.1 relocate()

Not really mapping specific, but still a nice way to move a variable to the start of a data frame.

relocate( resL, freq )

# A tibble: 33 × 3
    freq ndice roll 
   <dbl> <int> <chr>
 1   162     1 1    
 2   154     1 2    
 3   171     1 3    
 4   178     1 4    
 5   163     1 5    
 6   172     1 6    
 7    23     2 1    
 8    76     2 2    
 9   150     2 3    
10   198     2 4    
# ℹ 23 more rows
…
