12 A Deep Dive on group_by() – Handouts for S022 (Data Science in Education)
…
The group_by() functionality in the Tidyverse is a powerhouse function, with many applications for summarizing and cleaning data. This handout walks through several common use cases for the groupby_() function.

13 Importing the`dplyr`package

The group_by() function technically belongs to the dplyr package, but we can also load it by importing the tidyverse shortcut.

library(dplyr)
library(tidyverse)

For this walkthrough, we will be using a dataset of information on NFL players. We will use the group_by() function to analyze information across NFL teams. Our dataset consists of 16 columns and 1,822 players (one player per row).

nfl

# A tibble: 1,822 × 16
   `Player Name`     Team  Number Position  Salary Height Weight Birthdate   Age
   <chr>             <chr>  <dbl> <chr>      <dbl> <chr>   <dbl> <chr>     <dbl>
 1 Abdullah, Husain  KC        39 S         715000 "6'0\…    204 7/27/85      29
 2 Abdul-Quddus, Isa NO        42 S         465000 "6'1\…    205 8/3/89       25
 3 Aboushi, Oday     NYJ       75 OL        589750 "6'5\…    308 6/5/91       24
 4 Abraham, John     ARI       55 DE       2300000 "6'4\…    263 5/6/78       37
 5 Acho, Emmanuel    PHI       53 LB        525920 "6'2\…    240 11/10/90     24
 6 Acho, Sam         ARI       94 LB        628607 "6'3\…    257 9/6/88       26
 7 Adams, Joe        CAR       15 WR        641888 "5'11…    185 11/22/89     25
 8 Adams, Kris       NYG       89 WR        510000 "6'3\…    194 9/4/87       27
 9 Adams, Kyle       CHI       86 TE        465000 "6'4\…    255 1/19/88      27
10 Adams, Michael    TB        27 CB            NA "5'8\…    181 6/17/85      30
# ℹ 1,812 more rows
# ℹ 7 more variables: Experience <dbl>, College <chr>, City <chr>, State <chr>,
#   Race <chr>, birth_date <date>, birth_month <dbl>

13.1 What does group_by() do?

When you call group_by() on a dataframe, you are asking R to “organize” your data according to the grouping variable. For example, let’s group our data on NFL players by team. If you look carefully at the output below, you will see that our data has 1,822 rows and 16 columns, just like it did before. However, it now also has 32 groups (one for each NFL team).

nfl %>% group_by(Team)

# A tibble: 1,822 × 16
# Groups:   Team [32]
   `Player Name`     Team  Number Position  Salary Height Weight Birthdate   Age
   <chr>             <chr>  <dbl> <chr>      <dbl> <chr>   <dbl> <chr>     <dbl>
 1 Abdullah, Husain  KC        39 S         715000 "6'0\…    204 7/27/85      29
 2 Abdul-Quddus, Isa NO        42 S         465000 "6'1\…    205 8/3/89       25
 3 Aboushi, Oday     NYJ       75 OL        589750 "6'5\…    308 6/5/91       24
 4 Abraham, John     ARI       55 DE       2300000 "6'4\…    263 5/6/78       37
 5 Acho, Emmanuel    PHI       53 LB        525920 "6'2\…    240 11/10/90     24
 6 Acho, Sam         ARI       94 LB        628607 "6'3\…    257 9/6/88       26
 7 Adams, Joe        CAR       15 WR        641888 "5'11…    185 11/22/89     25
 8 Adams, Kris       NYG       89 WR        510000 "6'3\…    194 9/4/87       27
 9 Adams, Kyle       CHI       86 TE        465000 "6'4\…    255 1/19/88      27
10 Adams, Michael    TB        27 CB            NA "5'8\…    181 6/17/85      30
# ℹ 1,812 more rows
# ℹ 7 more variables: Experience <dbl>, College <chr>, City <chr>, State <chr>,
#   Race <chr>, birth_date <date>, birth_month <dbl>
…
13.3 Combining group_by() with summarize()

Now, let’s add in group_by() to find the average (mean) and maximum salary within each team. Let’s also get a count of the number of players on each team. Our output below has 32 rows—one for each value of the Team grouping variable.

Looking at the output, we can see that the Cleveland Browns (CLE) have an average salary of $1,924,681 and that the Baltimore Ravens (BAL) have an average salary of $2,145,966. Note that we set mean(..., na.rm = TRUE), so we are ignoring any players with missing salary data when calculating our team averages.

nfl %>% 
  group_by(Team) %>%
  summarize(num_players = n(), 
            mean_sal = mean(Salary, na.rm = TRUE), 
            max_sal = max(Salary, na.rm = TRUE))

# A tibble: 32 × 4
   Team  num_players mean_sal  max_sal
   <chr>       <int>    <dbl>    <dbl>
 1 ARI            58 2110725. 15750000
 2 ATL            55 2278403. 18958333
 3 BAL            57 2145966. 20100000
 4 BUF            55 1992520. 16000000
 5 CAR            61 2228745  12666667
 6 CHI            54 2369191. 14000000
 7 CIN            59 1955534. 11175000
 8 CLE            55 1924681. 10062500
 9 DAL            56 2491651. 17071429
10 DEN            60 2145368. 19200000
# ℹ 22 more rows

13.3.1 Getting fancy: Grouping with more than one variable

However, we can also group by more than one variable! For example, we can extend our code to get the average salary within each player position on each team. Let’s extend the code above to find the average and maximum salary within each team and position on that team. In this case, the n() summary variable tells us how many observations are within each grouping cell (i.e. the number of players in each position on each team).

What do you notice that is similar or different from the output above with a single grouping variable?

nfl %>% 
  group_by(Team, Position) %>%
  summarize(num_players = n(), 
            min_sal = min(Salary, na.rm = TRUE), 
            mean_sal = mean(Salary, na.rm = TRUE), 
            max_sal = max(Salary, na.rm = TRUE))

# A tibble: 471 × 6
# Groups:   Team [32]
   Team  Position num_players min_sal mean_sal  max_sal
   <chr> <chr>          <int>   <dbl>    <dbl>    <dbl>
 1 ARI   C                  1 3250000 3250000   3250000
 2 ARI   CB                 8  498367 1615209.  4607375
 3 ARI   DE                 5  555000 3152000  11000000
 4 ARI   DL                 2  405000 4869166.  9333333
 5 ARI   K                  1 1500000 1500000   1500000
 6 ARI   LB                 8  495000 1317682.  3166667
 7 ARI   LS                 1 1090667 1090667   1090667
 8 ARI   NT                 1 2067000 2067000   2067000
 9 ARI   OL                 9  539856 2250741.  6000000
10 ARI   P                  1 1150000 1150000   1150000
# ℹ 461 more rows
…
Centering data is a common practice in social science and education research. For example, we might often be less interested in a student’s absolute test score and more interested in how they performed relative to an average value.

For example, we established above that the average salary in the entire NFL is $2,142,272. We can use centering to calculate the amount each player earns above or below this overall average salary using the code below. This is called “grand mean” centering (i.e. we are comparing each player’s salary to the overall average).

Note that the code below tabulates the average salary mean(Salary) without first calling group_by().

nfl <- nfl %>% 
  group_by(Team) %>% 
  mutate(grand_cent_sal = (Salary - mean(Salary,  na.rm =  TRUE))) %>% 
  ungroup() # ungroup our data once we have what we need

nfl %>% select(Team, Salary, grand_cent_sal)

# A tibble: 1,822 × 3
   Team   Salary grand_cent_sal
   <chr>   <dbl>          <dbl>
 1 KC     715000      -2159274.
 2 NO     465000      -1468431.
 3 NYJ    589750      -1284454.
 4 ARI   2300000        189275.
 5 PHI    525920      -1932906.
 6 ARI    628607      -1482118.
 7 CAR    641888      -1586857 
 8 NYG    510000      -1578188.
 9 CHI    465000      -1904191.
10 TB         NA            NA 
# ℹ 1,812 more rows
…
