41 Example of a three-level model of clustered data – Resources for S043/Stat151: Multilevel and Longitudinal Models
…
This section illustrates some advanced reshaping techniques. In particular we reshape the data twice to deal with the time and the device as different levels.

Here we go:

dat <- pefr %>%
  pivot_longer(cols = c(wp1, wm1, wp2, wm2), 
               names_to = c( "device_time" ),
               values_to = "flow" ) %>%
  separate_wider_position( device_time, 
                           widths = c( device = 2, time = 1 ) )

dat

# A tibble: 68 × 4
      id device time   flow
   <dbl> <chr>  <chr> <dbl>
 1     1 wp     1       494
 2     1 wm     1       512
 3     1 wp     2       490
 4     1 wm     2       525
 5     2 wp     1       395
 6     2 wm     1       430
 7     2 wp     2       397
 8     2 wm     2       415
 9     3 wp     1       516
10     3 wm     1       520
# ℹ 58 more rows
…
