8 Demonstration of the Cluster Bootstrap – Handouts for S022 (Data Science in Education)
…
We then nest our data so each row is an entire cluster:

dat_nst <- dat %>%
    group_by( clid ) %>%
    nest() %>%
    ungroup()
dat_nst

# A tibble: 196 × 2
    clid data              
   <int> <list>            
 1     1 <tibble [20 × 11]>
 2     2 <tibble [22 × 11]>
 3     3 <tibble [21 × 11]>
 4     5 <tibble [23 × 11]>
 5     6 <tibble [21 × 11]>
 6     7 <tibble [18 × 11]>
 7     9 <tibble [23 × 11]>
 8    11 <tibble [19 × 11]>
 9    13 <tibble [17 × 11]>
10    14 <tibble [17 × 11]>
# ℹ 186 more rows
…
